{
	"pretty_name":"Charmander",
  "attacks": [
    "attacks/tackle.json",
    "attacks/flame.json"
  ],
  "img_small": "sprites/charmander.png",
  "animation_sequence":  "sprites/charmander.gif.frames/" 
}